{
    "Categories": "Qt;KDE;X-KDE-settings-system;",
    "KPlugin": {
        "Description": "Management of cellular networks",
        "Description[ca@valencia]": "Gestió de xarxes de telefonia mòbil",
        "Description[ca]": "Gestió de xarxes de telefonia mòbil",
        "Description[cs]": "Spravovat vaše mobilní sítě",
        "Description[de]": "Verwaltung von Mobilfunknetzen",
        "Description[en_GB]": "Management of cellular networks",
        "Description[eo]": "Administrado de ĉelaj retoj",
        "Description[es]": "Gestión de redes móviles",
        "Description[eu]": "Mugikorrerako sareen kudeaketa",
        "Description[fi]": "Matkapuhelinverkkojen hallinta",
        "Description[fr]": "Gestion de réseaux cellulaires",
        "Description[gl]": "Xestión de redes móbiles.",
        "Description[he]": "ניהול רשתות סלולריות",
        "Description[hu]": "Mobilhálózatok kezelése",
        "Description[ia]": "Gestion de retes cellular",
        "Description[is]": "Umsjón farsímaneta",
        "Description[it]": "Gestione delle reti cellulari",
        "Description[ka]": "ფიჭური ქსელების მართვა",
        "Description[ko]": "모바일 네트워크 관리",
        "Description[lv]": "Mobilo tīklu pārvaldība",
        "Description[nl]": "Beheer van cellulaire netwerken",
        "Description[nn]": "Handsaming av mobilnettverk",
        "Description[pa]": "ਸੈਲੂਲਰ ਨੈੱਟਵਰਕਾਂ ਦਾ ਇੰਤਜ਼ਾਮ",
        "Description[pl]": "Zarządzanie sieciami komórkowymi",
        "Description[pt_BR]": "Gerenciamento de redes celulares",
        "Description[ru]": "Управление сетями сотовой связи",
        "Description[sk]": "Správa mobilných sietí",
        "Description[sl]": "Upravljanje celičnih omrežij",
        "Description[sv]": "Hantering av mobilnät",
        "Description[tr]": "Hücresel ağların yönetimi",
        "Description[uk]": "Керування стільниковими мережами",
        "Description[x-test]": "xxManagement of cellular networksxx",
        "Description[zh_CN]": "管理移动网络",
        "Description[zh_TW]": "行動網路的管理",
        "FormFactors": [
            "handset",
            "tablet",
            "mediacenter"
        ],
        "Icon": "smartphone",
        "Name": "Cellular Network",
        "Name[ar]": "شبكة خليوية",
        "Name[ca@valencia]": "Xarxa de telefonia mòbil",
        "Name[ca]": "Xarxa de telefonia mòbil",
        "Name[cs]": "Mobilní síť",
        "Name[de]": "Mobilfunknetz",
        "Name[en_GB]": "Cellular Network",
        "Name[eo]": "Ĉela Reto",
        "Name[es]": "Red móvil",
        "Name[eu]": "Mugikorrerako sarea",
        "Name[fi]": "Matkapuhelinverkko",
        "Name[fr]": "Réseau cellulaire",
        "Name[gl]": "Rede móbil",
        "Name[he]": "רשת סלולרית",
        "Name[hu]": "Mobilhálózat",
        "Name[ia]": "Rete Cellular",
        "Name[is]": "Farsímakerfi",
        "Name[it]": "Rete cellulare",
        "Name[ka]": "ფიჭური ქსელი",
        "Name[ko]": "모바일 네트워크",
        "Name[lv]": "Mobilais tīkls",
        "Name[nl]": "Cellulair netwerk",
        "Name[nn]": "Mobilnettverk",
        "Name[pa]": "ਸੈਲੂਲਰ ਨੈੱਟਵਰਕ",
        "Name[pl]": "Sieć komórkowa",
        "Name[pt_BR]": "Rede celular",
        "Name[ru]": "Сеть сотовой связи",
        "Name[sk]": "Mobilná sieť",
        "Name[sl]": "Celično omrežje",
        "Name[sv]": "Mobilnät",
        "Name[ta]": "கைபேசி பிணையம்",
        "Name[tr]": "Hücresel Ağ",
        "Name[uk]": "Стільникова мережа",
        "Name[x-test]": "xxCellular Networkxx",
        "Name[zh_CN]": "移动网络",
        "Name[zh_TW]": "行動網路"
    },
    "X-KDE-Keywords": "mobile,data,network",
    "X-KDE-Keywords[ca@valencia]": "mòbil,dades,xarxa",
    "X-KDE-Keywords[ca]": "mòbil,dades,xarxa",
    "X-KDE-Keywords[cs]": "mobilní,data,síť",
    "X-KDE-Keywords[en_GB]": "mobile,data,network",
    "X-KDE-Keywords[es]": "móvil,datos,red",
    "X-KDE-Keywords[eu]": "mugikorra,telefono mugikorra,datuak,sarea",
    "X-KDE-Keywords[fr]": "mobile, data, réseau",
    "X-KDE-Keywords[gl]": "móbil,datos,rede",
    "X-KDE-Keywords[he]": "נייד,נתונים,רשת,פס רחב",
    "X-KDE-Keywords[hu]": "mobil,adat,hálózat",
    "X-KDE-Keywords[ia]": "mobile,data,network",
    "X-KDE-Keywords[it]": "mobile,dati,rete",
    "X-KDE-Keywords[ka]": "mobile,data,network,მობილური ინტერნეტი,ქსელი",
    "X-KDE-Keywords[lv]": "mobilie,dati,tīkls",
    "X-KDE-Keywords[nl]": "mobiel,gegevens,netwerk",
    "X-KDE-Keywords[nn]": "mobil,mobilt,data,nettverk",
    "X-KDE-Keywords[pl]": "komórkowa,mobilna,dane,sieć",
    "X-KDE-Keywords[ru]": "mobile,data,network,мобильный,данные,сеть",
    "X-KDE-Keywords[sl]": "mobilnik,podatki,omrežje",
    "X-KDE-Keywords[sv]": "mobil,data,nätverk",
    "X-KDE-Keywords[tr]": "mobil,cep,taşınabilir,veri,ağ",
    "X-KDE-Keywords[uk]": "mobile,data,network,мобільний,дані,мережа",
    "X-KDE-Keywords[x-test]": "xxmobilexx,xxdataxx,xxnetworkxx",
    "X-KDE-Keywords[zh_CN]": "mobile,data,network,yidong,shuju,wangluo,fengwo,shouji,liuliang,移动,数据,流量,网络,蜂窝,手机",
    "X-KDE-System-Settings-Parent-Category": "network",
    "X-KDE-Weight": 70
}
